module git.neds.sh/matty/entain/racing

go 1.16

require (
	github.com/bufbuild/buf v0.37.0 // indirect
	github.com/golang/protobuf v1.5.2
	github.com/grpc-ecosystem/grpc-gateway/v2 v2.5.0
	github.com/mattn/go-sqlite3 v1.14.6
	github.com/sirupsen/logrus v1.8.0
	golang.org/x/net v0.0.0-20210405180319-a5a99cb37ef4
	google.golang.org/genproto v0.0.0-20210701191553-46259e63a0a9
	google.golang.org/grpc v1.38.0
	google.golang.org/grpc/cmd/protoc-gen-go-grpc v1.1.0
	google.golang.org/protobuf v1.27.1
	syreclabs.com/go/faker v1.2.3
)
