module git.neds.sh/matty/entain/api

go 1.16

require (
	github.com/golang/protobuf v1.5.2
	github.com/grpc-ecosystem/grpc-gateway/v2 v2.5.0
	github.com/sirupsen/logrus v1.8.0
	google.golang.org/genproto v0.0.0-20210617175327-b9e0b3197ced
	google.golang.org/grpc v1.38.0
	google.golang.org/grpc/cmd/protoc-gen-go-grpc v1.1.0
	google.golang.org/protobuf v1.26.0
)
